Soph_lyrics
…
Clean and Format the Final Results

# Unnest the top tracks to a readable format (EXCLUDING genres, image_url, and spotify_link)
top_artists_german_tracks <- top_artists_german %>%
  select(artist_name = name, artist_popularity = popularity, 
         followers, top_tracks) %>%
  unnest(cols = top_tracks)

# we need to delete a spanish Artist manually, because he always appears in the german list
top_artists_german_tracks <- top_artists_german_tracks %>%
  filter(!artist_name %in% c("Morad", "Rvfv"))

print(top_artists_german_tracks)

# A tibble: 30 × 5
   artist_name artist_popularity followers track_name           track_popularity
   <chr>                   <dbl>     <dbl> <chr>                           <dbl>
 1 Luciano                    75   2394883 Butcher                            71
 2 Luciano                    75   2394883 PLAYBOYBUNNIES                     71
 3 Luciano                    75   2394883 Gesegnet                           70
 4 Luciano                    75   2394883 Cold as Ice                        69
 5 Luciano                    75   2394883 Starboy                            68
 6 RAF Camora                 73   1804015 Ohne mein Team                     67
 7 RAF Camora                 73   1804015 Toto (feat. RAF Cam…               65
 8 RAF Camora                 73   1804015 Blaues Licht                       65
 9 RAF Camora                 73   1804015 Palmen aus Plastik                 65
10 RAF Camora                 73   1804015 Kokain                             64
# ℹ 20 more rows
…
Found best match Genius URL: https://genius.com/Amo-and-nimo-rapstar-lyrics

Found best match Genius URL: https://genius.com/Jenemy-tranen-lachen-lyrics

Found best match Genius URL: https://genius.com/Nimo-and-che-salah-jung-and-machen-geld-remix-lyrics

Found best match Genius URL: https://genius.com/Rapido-frau-meissner-lyrics

Found exact match Genius URL: https://genius.com/Nimo-wie-beim-ersten-mal-lyrics

# View the results
print(top_artists_german_tracks %>% select(artist_name, track_name, genius_url, genius_id))

# A tibble: 28 × 4
   artist_name track_name              genius_url                      genius_id
   <chr>       <chr>                   <chr>                               <int>
 1 Luciano     Butcher                 https://genius.com/Sole-deu-ph…   2418581
 2 Luciano     Gesegnet                https://genius.com/Mucco-on-ma…  10891103
 3 Luciano     Cold as Ice             https://genius.com/Bastardo-lo…   2972915
 4 Luciano     Starboy                 https://genius.com/Mucco-on-ma…  10891103
 5 RAF Camora  Ohne mein Team          https://genius.com/Raf-camora-…   4813438
 6 RAF Camora  Toto (feat. RAF Camora) https://genius.com/Joyce-santa…  11572388
 7 RAF Camora  Blaues Licht            https://genius.com/Bonez-mc-an…   8174131
 8 RAF Camora  Palmen aus Plastik      https://genius.com/Bonez-mc-an…   2853616
 9 RAF Camora  Kokain                  https://genius.com/Raf-camora-…   9255881
10 Gzuz        Kreidebleich            https://genius.com/Gzuz-alles-…   3556569
# ℹ 18 more rows
…
top_artists_german_tracks <- top_artists_german_tracks %>%
  mutate(lyrics  = map_chr(genius_url , get_genius_lyrics ))

View and Save Final Dataset

# View final dataset with Genius IDs, URLs, and Lyrics
print(top_artists_german_tracks  %>% select(artist_name, track_name , genius_url , genius_id , lyrics ))

# A tibble: 28 × 5
   artist_name track_name              genius_url               genius_id lyrics
   <chr>       <chr>                   <chr>                        <int> <chr> 
 1 Luciano     Butcher                 https://genius.com/Sole…   2418581 "[Son…
 2 Luciano     Gesegnet                https://genius.com/Mucc…  10891103 "[Son…
 3 Luciano     Cold as Ice             https://genius.com/Bast…   2972915 "RIT.…
 4 Luciano     Starboy                 https://genius.com/Mucc…  10891103 "[Son…
 5 RAF Camora  Ohne mein Team          https://genius.com/Raf-…   4813438 "[Son…
 6 RAF Camora  Toto (feat. RAF Camora) https://genius.com/Joyc…  11572388 "[Let…
 7 RAF Camora  Blaues Licht            https://genius.com/Bone…   8174131 "[Son…
 8 RAF Camora  Palmen aus Plastik      https://genius.com/Bone…   2853616 "[Son…
 9 RAF Camora  Kokain                  https://genius.com/Raf-…   9255881 "[Son…
10 Gzuz        Kreidebleich            https://genius.com/Gzuz…   3556569 "[Hoo…
# ℹ 18 more rows
…
# **Combine standard + custom stopwords**
all_stopwords <- unique(c(spanish_stops, custom_stopwords))

# **Tokenize, remove stopwords, and count word frequency**
word_freq_es <- top_artists_tracks_es_atomic %>%
  filter(!is.na(lyrics_es) & lyrics_es != "") %>%  # Remove NA + empty rows
  unnest_tokens(word, lyrics_es) %>%  # Tokenize text
  filter(!word %in% all_stopwords & word != "") %>%  # **Remove stopwords**
  count(word, sort = TRUE)  # Count word frequencies

# **Check the result**
print(word_freq_es)

# A tibble: 1,866 × 2
   word        n
   <chr>   <int>
 1 solo       30
 2 dice       26
 3 siempre    24
 4 ú          24
 5 sosa       21
 6 contigo    18
 7 jr         18
 8 não        16
 9 ver        16
10 gusta      15
# ℹ 1,856 more rows
…
word_correlation

# A tibble: 9,600,702 × 3
   item1       item2  correlation
   <chr>       <chr>        <dbl>
 1 ich         zu               1
 2 2           1                1
 3 f           bitch            1
 4 kriegst     bitch            1
 5 renn        gehen            1
 6 kleine      gehen            1
 7 nennt       gehen            1
 8 geschrieben gehen            1
 9 zu          ich              1
10 spring      frauen           1
# ℹ 9,600,692 more rows

# Filter für "Mann"
mann_correlation <- word_correlation %>%
  filter(item1 == "männer" | item2 == "mann")

print(mann_correlation)

# A tibble: 6,195 × 3
   item1  item2         correlation
   <chr>  <chr>               <dbl>
 1 tun    mann                    1
 2 männer phönix                  1
 3 männer mischt                  1
 4 männer john                    1
 5 männer player                  1
 6 männer longpaper               1
 7 männer purple                  1
 8 männer hazeich                 1
 9 männer rockstarleben           1
10 männer nenn                    1
# ℹ 6,185 more rows

# Filter für "Frau"
frau_correlation <- word_correlation %>%
  filter(item1 == "frauen"| item2 == "frauen")

print(frau_correlation)

# A tibble: 6,196 × 3
   item1  item2         correlation
   <chr>  <chr>               <dbl>
 1 spring frauen              1    
 2 frauen spring              1    
 3 frauen phönix              0.691
 4 frauen mischt              0.691
 5 frauen john                0.691
 6 frauen player              0.691
 7 frauen longpaper           0.691
 8 frauen purple              0.691
 9 frauen hazeich             0.691
10 frauen rockstarleben       0.691
# ℹ 6,186 more rows
…
